Construção de indicadores de acessibilidade espacial à saúde com o pacote asha • asha
…
Modelagem OD

OD euclidiano

centroides <- st_centroid(setores) %>% select(cd_geocodi)
od_euclidiano <- asha_nn(ubs_pontos, centroides, "cnes", "cd_geocodi", 5)
od_euclidiano
#> # A tibble: 94,765 x 4
#>    cd_geocodi      cnes    proximidade distancia
#>    <chr>           <chr>         <int>     <dbl>
#>  1 355030804000079 2787490           1      429.
#>  2 355030804000080 2787490           1      523.
#>  3 355030804000081 2787490           1      551.
#>  4 355030804000082 2788942           1      614.
#>  5 355030804000083 2788942           1      429.
#>  6 355030804000084 2788942           1      649.
#>  7 355030804000085 4049799           1      465.
#>  8 355030804000086 4049799           1      637.
#>  9 355030804000087 2789124           1      568.
#> 10 355030804000088 2789124           1      549.
#> # … with 94,755 more rows
…
